{
  "name": "Entry",
  "fields": [
    {
      "fieldName": "title",
      "fieldType": "String",
      "fieldValidateRules": [
        "required"
      ]
    },
    {
      "fieldName": "content",
      "fieldType": "byte[]",
      "fieldTypeBlobContent": "text",
      "fieldValidateRules": [
        "required"
      ]
    },
    {
      "fieldName": "date",
      "fieldType": "Instant",
      "fieldValidateRules": [
        "required"
      ]
    }
  ],
  "relationships": [
    {
      "relationshipType": "many-to-one",
      "otherEntityName": "blog",
      "otherEntityRelationshipName": "entry",
      "relationshipName": "blog",
      "otherEntityField": "name"
    },
    {
      "relationshipType": "many-to-many",
      "otherEntityName": "tag",
      "otherEntityRelationshipName": "entry",
      "relationshipName": "tag",
      "otherEntityField": "name",
      "ownerSide": true
    }
  ],
  "changelogDate": "20201012233826",
  "entityTableName": "entry",
  "dto": "no",
  "pagination": "infinite-scroll",
  "service": "no",
  "jpaMetamodelFiltering": false,
  "fluentMethods": true,
  "readOnly": false,
  "embedded": false,
  "clientRootFolder": "",
  "applications": "*"
}
